woodcarbonization/.git/*
woodcarbonization/.gitignore
woodcarbonization/makefile
woodcarbonization/excludefromzip.lst
woodcarbonization/*.swp
woodcarbonization/*.zip
woodcarbonization/MODS-HOWTO.md
woodcarbonization/readme-release.txt
woodcarbonization/thumbnail-*.png
woodcarbonization/*.bkp
